{
    "key": "group_63370dcc3136c",
    "title": "Event Settings",
    "fields": [
        {
            "key": "field_63370dd0c76d2",
            "label": "Covid Messaging",
            "name": "covid_messaging",
            "type": "group",
            "instructions": "",
            "required": 0,
            "conditional_logic": 0,
            "wrapper": {
                "width": "",
                "class": "",
                "id": ""
            },
            "layout": "row",
            "sub_fields": [
                {
                    "key": "field_63370deac76d3",
                    "label": "Heading",
                    "name": "heading",
                    "type": "text",
                    "instructions": "",
                    "required": 0,
                    "conditional_logic": 0,
                    "wrapper": {
                        "width": "",
                        "class": "",
                        "id": ""
                    },
                    "default_value": "",
                    "placeholder": "",
                    "prepend": "",
                    "append": "",
                    "maxlength": ""
                },
                {
                    "key": "field_63370df3c76d4",
                    "label": "Content",
                    "name": "content",
                    "type": "textarea",
                    "instructions": "",
                    "required": 0,
                    "conditional_logic": 0,
                    "wrapper": {
                        "width": "",
                        "class": "",
                        "id": ""
                    },
                    "default_value": "",
                    "placeholder": "",
                    "maxlength": "",
                    "rows": 3,
                    "new_lines": "wpautop"
                }
            ]
        },
        {
            "key": "field_635190e0181c4",
            "label": "Sub Menu",
            "name": "events_sub_menu",
            "type": "select",
            "instructions": "",
            "required": 0,
            "conditional_logic": 0,
            "wrapper": {
                "width": "",
                "class": "",
                "id": ""
            },
            "choices": {
                "2022 NEW MAIN MENU": "2022 NEW MAIN MENU",
                "About Menu": "About Menu",
                "Apply": "Apply",
                "Business Development Sessions": "Business Development Sessions",
                "DISCOVER EVENTS": "DISCOVER EVENTS",
                "Header Menu": "Header Menu",
                "HWA": "HWA",
                "HWA EDU 2022": "HWA EDU 2022",
                "OFTF": "OFTF",
                "Partner Menu": "Partner Menu"
            },
            "default_value": false,
            "allow_null": 1,
            "multiple": 0,
            "ui": 0,
            "return_format": "value",
            "ajax": 0,
            "placeholder": ""
        }
    ],
    "location": [
        [
            {
                "param": "options_page",
                "operator": "==",
                "value": "acf-options-event-settings"
            }
        ]
    ],
    "menu_order": 0,
    "position": "normal",
    "style": "default",
    "label_placement": "top",
    "instruction_placement": "label",
    "hide_on_screen": "",
    "active": true,
    "description": "",
    "modified": 1666290168
}