{
    "key": "group_5b89989672d02",
    "title": "Page Fields",
    "fields": [
        {
            "key": "field_5c9b79947b5f1",
            "label": "Content at the bottom",
            "name": "bottom_content",
            "type": "wysiwyg",
            "instructions": "",
            "required": 0,
            "conditional_logic": 0,
            "wrapper": {
                "width": "",
                "class": "",
                "id": ""
            },
            "tabs": "all",
            "toolbar": "full",
            "media_upload": 1,
            "default_value": "",
            "delay": 0
        },
        {
            "key": "field_5d26469556db6",
            "label": "Sub Menu",
            "name": "sub_menu",
            "type": "select",
            "instructions": "",
            "required": 0,
            "conditional_logic": 0,
            "wrapper": {
                "width": "",
                "class": "",
                "id": ""
            },
            "choices": {
                "About Menu": "About Menu",
                "Header Menu": "Header Menu",
                "partner menu": "partner menu",
                "2021 NEW MAIN MENU": "2021 NEW MAIN MENU",
                "Apply": "Apply",
                "Business Development Sessions": "Business Development Sessions",
                "DISCOVER EVENTS": "DISCOVER EVENTS",
                "HWA": "HWA",
                "OFTF": "OFTF",
                "Partner Menu": "Partner Menu",
                "Sponsor Menu": "Sponsor Menu"
            },
            "default_value": false,
            "allow_null": 1,
            "multiple": 0,
            "ui": 0,
            "return_format": "value",
            "ajax": 0,
            "placeholder": ""
        }
    ],
    "location": [
        [
            {
                "param": "post_type",
                "operator": "==",
                "value": "page"
            }
        ]
    ],
    "menu_order": 2,
    "position": "normal",
    "style": "seamless",
    "label_placement": "top",
    "instruction_placement": "label",
    "hide_on_screen": "",
    "active": true,
    "description": "",
    "modified": 1631732101
}