{
    "key": "group_6101620abd8c7",
    "title": "Business Information",
    "fields": [
        {
            "key": "field_610192ab4ff88",
            "label": "Name or Business Name",
            "name": "business_name",
            "type": "text",
            "instructions": "",
            "required": 1,
            "conditional_logic": 0,
            "wrapper": {
                "width": "",
                "class": "",
                "id": ""
            },
            "default_value": "",
            "placeholder": "",
            "prepend": "",
            "append": "",
            "maxlength": ""
        },
        {
            "key": "field_610193484ff91",
            "label": "Please add contact information (Will not be made public)",
            "name": "business_contacts",
            "type": "repeater",
            "instructions": "You may add as many contacts as you wish. This information will not be made public and is for NYCJW internal purposes ONLY.",
            "required": 0,
            "conditional_logic": 0,
            "wrapper": {
                "width": "",
                "class": "",
                "id": ""
            },
            "collapsed": "field_610193a14ff92",
            "min": 0,
            "max": 0,
            "layout": "block",
            "button_label": "Add Internal Contact Here",
            "sub_fields": [
                {
                    "key": "field_610193a14ff92",
                    "label": "Name",
                    "name": "name",
                    "type": "text",
                    "instructions": "",
                    "required": 0,
                    "conditional_logic": 0,
                    "wrapper": {
                        "width": "",
                        "class": "",
                        "id": ""
                    },
                    "default_value": "",
                    "placeholder": "",
                    "prepend": "",
                    "append": "",
                    "maxlength": ""
                },
                {
                    "key": "field_610193af4ff93",
                    "label": "Email",
                    "name": "email",
                    "type": "email",
                    "instructions": "",
                    "required": 0,
                    "conditional_logic": 0,
                    "wrapper": {
                        "width": "",
                        "class": "",
                        "id": ""
                    },
                    "default_value": "",
                    "placeholder": "",
                    "prepend": "",
                    "append": ""
                },
                {
                    "key": "field_610193b74ff94",
                    "label": "Phone",
                    "name": "phone",
                    "type": "text",
                    "instructions": "",
                    "required": 0,
                    "conditional_logic": 0,
                    "wrapper": {
                        "width": "",
                        "class": "",
                        "id": ""
                    },
                    "default_value": "",
                    "placeholder": "",
                    "prepend": "",
                    "append": "",
                    "maxlength": ""
                }
            ]
        },
        {
            "key": "field_610aad3afa661",
            "label": "Location of Business\/Organization",
            "name": "business_location",
            "type": "google_map",
            "instructions": "If you are a business with a physical location, please provide your address",
            "required": 0,
            "conditional_logic": 0,
            "wrapper": {
                "width": "",
                "class": "",
                "id": ""
            },
            "center_lat": "40.7285147",
            "center_lng": "-74.0045273",
            "zoom": 12,
            "height": ""
        },
        {
            "key": "field_610192c04ff8a",
            "label": "Social Links",
            "name": "social_links",
            "type": "group",
            "instructions": "Please provide links to your business or personal social accounts.",
            "required": 0,
            "conditional_logic": 0,
            "wrapper": {
                "width": "",
                "class": "",
                "id": ""
            },
            "layout": "block",
            "sub_fields": [
                {
                    "key": "field_610192df4ff8b",
                    "label": "Instagram URL",
                    "name": "instagram_url",
                    "type": "url",
                    "instructions": "",
                    "required": 0,
                    "conditional_logic": 0,
                    "wrapper": {
                        "width": "",
                        "class": "",
                        "id": ""
                    },
                    "default_value": "",
                    "placeholder": ""
                },
                {
                    "key": "field_610ab70f8c2d8",
                    "label": "Facebook URL",
                    "name": "facebook_url",
                    "type": "url",
                    "instructions": "",
                    "required": 0,
                    "conditional_logic": 0,
                    "wrapper": {
                        "width": "",
                        "class": "",
                        "id": ""
                    },
                    "default_value": "",
                    "placeholder": ""
                },
                {
                    "key": "field_610192f44ff8c",
                    "label": "Pinterest URL",
                    "name": "pinterest_url",
                    "type": "url",
                    "instructions": "",
                    "required": 0,
                    "conditional_logic": 0,
                    "wrapper": {
                        "width": "",
                        "class": "",
                        "id": ""
                    },
                    "default_value": "",
                    "placeholder": ""
                },
                {
                    "key": "field_610193024ff8d",
                    "label": "Twitter URL",
                    "name": "twitter_url",
                    "type": "url",
                    "instructions": "",
                    "required": 0,
                    "conditional_logic": 0,
                    "wrapper": {
                        "width": "",
                        "class": "",
                        "id": ""
                    },
                    "default_value": "",
                    "placeholder": ""
                },
                {
                    "key": "field_610193184ff8f",
                    "label": "TikTok URL",
                    "name": "tiktok_url",
                    "type": "url",
                    "instructions": "",
                    "required": 0,
                    "conditional_logic": 0,
                    "wrapper": {
                        "width": "",
                        "class": "",
                        "id": ""
                    },
                    "default_value": "",
                    "placeholder": ""
                }
            ]
        },
        {
            "key": "field_6102f15e012f6",
            "label": "Inclusion",
            "name": "inclusion",
            "type": "group",
            "instructions": "*The following inclusion questions are not required. Your response helps us to ensure that we reach, connect with, represent, support and amplify all voices through the NYCJW platform and programming.",
            "required": 0,
            "conditional_logic": 0,
            "wrapper": {
                "width": "",
                "class": "",
                "id": ""
            },
            "layout": "block",
            "sub_fields": [
                {
                    "key": "field_6102f174012f7",
                    "label": "What percentage of your program or event represents the work of members of the BIPOC, Latino or Asian communities?",
                    "name": "percent_ethnic",
                    "type": "text",
                    "instructions": "",
                    "required": 0,
                    "conditional_logic": 0,
                    "wrapper": {
                        "width": "",
                        "class": "",
                        "id": ""
                    },
                    "default_value": "",
                    "placeholder": "",
                    "prepend": "",
                    "append": "",
                    "maxlength": ""
                },
                {
                    "key": "field_6102f1ae012f8",
                    "label": "What percentage of your program or event represents the work of members of the LGBTQIA2S+ community?",
                    "name": "percent_lgbtqia",
                    "type": "text",
                    "instructions": "",
                    "required": 0,
                    "conditional_logic": 0,
                    "wrapper": {
                        "width": "",
                        "class": "",
                        "id": ""
                    },
                    "default_value": "",
                    "placeholder": "",
                    "prepend": "",
                    "append": "",
                    "maxlength": ""
                },
                {
                    "key": "field_6102f1c9012f9",
                    "label": "What percentage of your program or event represents the work of female-identifying persons?",
                    "name": "percent_female",
                    "type": "text",
                    "instructions": "",
                    "required": 0,
                    "conditional_logic": 0,
                    "wrapper": {
                        "width": "",
                        "class": "",
                        "id": ""
                    },
                    "default_value": "",
                    "placeholder": "",
                    "prepend": "",
                    "append": "",
                    "maxlength": ""
                },
                {
                    "key": "field_6102f201012fa",
                    "label": "Was this program or event curated or organized by individuals who identify as:",
                    "name": "curated_by",
                    "type": "checkbox",
                    "instructions": "",
                    "required": 0,
                    "conditional_logic": 0,
                    "wrapper": {
                        "width": "",
                        "class": "",
                        "id": ""
                    },
                    "choices": {
                        "lbgtqia2s": "LGBTQIA2S+",
                        "black": "Black",
                        "asian": "Asian",
                        "pacific_islander": "Pacific Islander",
                        "indigenous": "Indigenous",
                        "latinx": "Latino or Hispanic",
                        "aapi": "AAPI Individual(s)",
                        "poc": "A race\/ethnicity not listed here (add new choice below)"
                    },
                    "allow_custom": 1,
                    "save_custom": 0,
                    "default_value": [],
                    "layout": "vertical",
                    "toggle": 0,
                    "return_format": "value"
                },
                {
                    "key": "field_6102f237012fb",
                    "label": "What is the average age range of your participants?",
                    "name": "participant_ages",
                    "type": "text",
                    "instructions": "",
                    "required": 0,
                    "conditional_logic": 0,
                    "wrapper": {
                        "width": "",
                        "class": "",
                        "id": ""
                    },
                    "default_value": "",
                    "placeholder": "",
                    "prepend": "",
                    "append": "",
                    "maxlength": ""
                }
            ]
        },
        {
            "key": "field_6102f29b1e3fd",
            "label": "Is this your first year participating in NYCJW?",
            "name": "first_year",
            "type": "true_false",
            "instructions": "",
            "required": 0,
            "conditional_logic": 0,
            "wrapper": {
                "width": "",
                "class": "",
                "id": ""
            },
            "message": "",
            "default_value": 1,
            "ui": 1,
            "ui_on_text": "",
            "ui_off_text": ""
        },
        {
            "key": "field_6102f2bd1e3fe",
            "label": "Including this year, how many years have you participated?",
            "name": "years_participated",
            "type": "range",
            "instructions": "",
            "required": 1,
            "conditional_logic": [
                [
                    {
                        "field": "field_6102f29b1e3fd",
                        "operator": "!=",
                        "value": "1"
                    }
                ]
            ],
            "wrapper": {
                "width": "",
                "class": "",
                "id": ""
            },
            "default_value": "",
            "min": 1,
            "max": 5,
            "step": "",
            "prepend": "",
            "append": ""
        },
        {
            "key": "field_6102f3491e3ff",
            "label": "Will there be jewelry for sale at your event?",
            "name": "pieces_for_sale",
            "type": "true_false",
            "instructions": "",
            "required": 0,
            "conditional_logic": 0,
            "wrapper": {
                "width": "",
                "class": "",
                "id": ""
            },
            "message": "",
            "default_value": 0,
            "ui": 1,
            "ui_on_text": "",
            "ui_off_text": ""
        },
        {
            "key": "field_6102f37a1e400",
            "label": "Are they for sale in-person, on a URL or both?",
            "name": "sale_source",
            "type": "radio",
            "instructions": "",
            "required": 1,
            "conditional_logic": [
                [
                    {
                        "field": "field_6102f3491e3ff",
                        "operator": "==",
                        "value": "1"
                    }
                ]
            ],
            "wrapper": {
                "width": "",
                "class": "",
                "id": ""
            },
            "choices": {
                "in_person": "In-person",
                "url": "URL",
                "both": "Both"
            },
            "allow_null": 0,
            "other_choice": 0,
            "default_value": "",
            "layout": "vertical",
            "return_format": "value",
            "save_other_choice": 0
        },
        {
            "key": "field_6102f614fd81c",
            "label": "Please provide the URL where you are selling your items",
            "name": "sales_url",
            "type": "url",
            "instructions": "",
            "required": 1,
            "conditional_logic": [
                [
                    {
                        "field": "field_6102f37a1e400",
                        "operator": "==",
                        "value": "both"
                    }
                ],
                [
                    {
                        "field": "field_6102f37a1e400",
                        "operator": "==",
                        "value": "url"
                    }
                ]
            ],
            "wrapper": {
                "width": "",
                "class": "",
                "id": ""
            },
            "default_value": "",
            "placeholder": ""
        },
        {
            "key": "field_6102f3e21e401",
            "label": "Are you offering a promotion to the audience of NYCJW?",
            "name": "audience_promotion",
            "type": "true_false",
            "instructions": "This can be a discount, special access or a donation on their behalf from sales.",
            "required": 0,
            "conditional_logic": 0,
            "wrapper": {
                "width": "",
                "class": "",
                "id": ""
            },
            "message": "",
            "default_value": 0,
            "ui": 1,
            "ui_on_text": "",
            "ui_off_text": ""
        },
        {
            "key": "field_6102f4581e402",
            "label": "Provide promotion details",
            "name": "promotion_details",
            "type": "textarea",
            "instructions": "",
            "required": 1,
            "conditional_logic": [
                [
                    {
                        "field": "field_6102f3e21e401",
                        "operator": "==",
                        "value": "1"
                    }
                ]
            ],
            "wrapper": {
                "width": "",
                "class": "",
                "id": ""
            },
            "default_value": "",
            "placeholder": "",
            "maxlength": "",
            "rows": "",
            "new_lines": ""
        }
    ],
    "location": [
        [
            {
                "param": "user_role",
                "operator": "==",
                "value": "event_owner"
            },
            {
                "param": "user_form",
                "operator": "!=",
                "value": "register"
            }
        ]
    ],
    "menu_order": 0,
    "position": "normal",
    "style": "default",
    "label_placement": "top",
    "instruction_placement": "label",
    "hide_on_screen": "",
    "active": true,
    "description": "",
    "modified": 1661271570
}