<svg width="315" height="315" viewBox="0 0 315 315" fill="none" xmlns="http://www.w3.org/2000/svg">
<circle cx="157.5" cy="157.5" r="157.5" fill="black"/>
<path d="M157.608 230.42C112.611 230.42 76 193.811 76 148.812C76 144.001 79.9003 140.104 84.7082 140.104C89.5189 140.104 93.4164 144.004 93.4164 148.812C93.4192 184.207 122.213 213.004 157.608 213.004C193 213.004 221.797 184.207 221.797 148.815C221.797 144.004 225.694 140.107 230.505 140.107C235.316 140.107 239.213 144.007 239.213 148.815C239.216 193.811 202.605 230.42 157.608 230.42Z" fill="white"/>
<path d="M157.608 201.674C128.707 201.674 105.061 178.028 105.061 149.127V83.547C105.061 54.6462 128.707 31 157.608 31C186.509 31 210.155 54.6462 210.155 83.547V149.124C210.155 178.025 186.509 201.674 157.608 201.674Z" fill="white"/>
<path d="M157.608 281.689C152.797 281.689 148.9 277.791 148.9 272.98V223.921C148.9 219.11 152.8 215.212 157.608 215.212C162.419 215.212 166.316 219.11 166.316 223.921V272.98C166.316 277.791 162.419 281.689 157.608 281.689Z" fill="white"/>
<path d="M186.976 283.9H128.241C123.43 283.9 119.533 280.003 119.533 275.192C119.533 270.381 123.433 266.484 128.241 266.484H186.973C191.783 266.484 195.681 270.381 195.681 275.192C195.681 280.003 191.786 283.9 186.976 283.9Z" fill="white"/>
</svg>
